VDJ + GEX data integration
…
# for all of the clusters, DEG between isotypes
# set your working directory
#setwd('/../../Adam/A07_vdj_analysis')

# when you run this function two excel spreadsheets will be written in your working difectory
# please take a look that IG isotypes names are right, there should be only heavy chain genes
Isotypes_DEG(A07)

## [1] "calculating markers for short isotypes"
## [1] "IGHA" "IGHD" "IGHG" "IGHM"
## [1] "saved short isotypes as an excel spreadsheet"
## [1] "calculating markers for full isotypes"
## [1] "IGHA1" "IGHA2" "IGHD"  "IGHG1" "IGHG2" "IGHG3" "IGHG4" "IGHM" 
## [1] "saved full isotypes as an excel spreadsheet"
## # A tibble: 40 x 7
## # Groups:   cluster [8]
##        p_val avg_logFC pct.1 pct.2 p_val_adj cluster gene  
##        <dbl>     <dbl> <dbl> <dbl>     <dbl> <fct>   <chr> 
##  1 1.68e- 64     0.635 0.623 0.191 2.63e- 60 IGHA1   IGHA1 
##  2 2.46e- 21     0.394 0.426 0.19  3.85e- 17 IGHA1   SCIMP 
##  3 9.27e- 15     0.485 0.754 0.567 1.45e- 10 IGHA1   STAG3 
##  4 1.35e- 13     0.326 0.859 0.74  2.11e-  9 IGHA1   JCHAIN
##  5 1.30e-  6     0.319 0.451 0.323 2.03e-  2 IGHA1   LGALS1
##  6 3.48e-175     1.02  0.669 0.088 5.44e-171 IGHA2   IGHA2 
##  7 3.00e- 31     0.616 0.604 0.298 4.69e- 27 IGHA2   LGALS1
##  8 1.24e- 19     0.387 0.413 0.203 1.93e- 15 IGHA2   CAMK1 
##  9 1.16e- 15     0.412 0.279 0.121 1.82e- 11 IGHA2   HOPX  
## 10 1.76e- 14     0.509 0.548 0.369 2.75e- 10 IGHA2   GMDS  
## #  with 30 more rows

# for only cluster 1
A07_subset <- SubsetData(object = A07, 
                         ident.use = c('1')) # change clusters here

Isotypes_DEG(A07_subset)

## [1] "calculating markers for short isotypes"
## [1] "IGHA" "IGHG" "IGHM"
## [1] "saved short isotypes as an excel spreadsheet"
## [1] "calculating markers for full isotypes"
## [1] "IGHA1" "IGHA2" "IGHG1" "IGHG2" "IGHG3" "IGHG4" "IGHM" 
## [1] "saved full isotypes as an excel spreadsheet"
## # A tibble: 30 x 7
## # Groups:   cluster [6]
##       p_val avg_logFC pct.1 pct.2 p_val_adj cluster gene    
##       <dbl>     <dbl> <dbl> <dbl>     <dbl> <fct>   <chr>   
##  1 4.08e-29     0.795 0.776 0.15   6.38e-25 IGHA1   IGHA1   
##  2 3.91e- 4     0.353 0.862 0.756  1.00e+ 0 IGHA1   JCHAIN  
##  3 8.46e- 4     0.334 0.707 0.556  1.00e+ 0 IGHA1   STAG3   
##  4 2.31e- 3     0.316 0.879 0.75   1.00e+ 0 IGHA1   ARPC5L  
##  5 5.72e- 3     0.316 0.448 0.298  1.00e+ 0 IGHA1   FAM3C   
##  6 5.55e-40     0.990 0.708 0.067  8.68e-36 IGHA2   IGHA2   
##  7 1.99e-15     1.96  0.375 0.051  3.12e-11 IGHA2   IGKV1-5 
##  8 5.66e-13     0.544 0.375 0.069  8.85e- 9 IGHA2   TBC1D4  
##  9 3.46e-10     0.632 0.646 0.257  5.41e- 6 IGHA2   LGALS1  
## 10 7.12e- 4     0.394 0.438 0.239  1.00e+ 0 IGHA2   KIAA0125
## #  with 20 more rows
